…
```{r}
library(tidyverse)
#install.packages(c("nycflights13", "gapminder", "Lahman"))
library(nycflights13)
library(gapminder)
library(Lahman)

```

**The mpg data frame**

You can test your answer with the mpg data frame found in ggplot2 (aka ggplot2::mpg). A data frame is a rectangular collection of variables (in the columns) and observations (in the rows). mpg contains observations collected by the US Environmental Protection Agency on 38 models of car.

mpg
#> # A tibble: 234 x 11
#>   manufacturer model displ  year   cyl trans  drv     cty   hwy fl    class
#>   <chr>        <chr> <dbl> <int> <int> <chr>  <chr> <int> <int> <chr> <chr>
#> 1 audi         a4      1.8  1999     4 auto(… f        18    29 p     comp…
#> 2 audi         a4      1.8  1999     4 manua… f        21    29 p     comp…
#> 3 audi         a4      2    2008     4 manua… f        20    31 p     comp…
#> 4 audi         a4      2    2008     4 auto(… f        21    30 p     comp…
#> 5 audi         a4      2.8  1999     6 auto(… f        16    26 p     comp…
#> 6 audi         a4      2.8  1999     6 manua… f        18    26 p     comp…
#> # … with 228 more rows
…
